0x00000000: 000007C0 000006D1 000000D1 000006B1   |................|
0x00000010: 00000000 00000000 00000000 00000000   |................|
0x00000020: 00000000 00000000 00000000 00000751   |............Q...|
0x00000030: 00000000 00000000 000000DB 000000E5   |................|
0x00000040: 000000EF 000000F9 00000103 0000010D   |................|
0x00000050: 00000117 00000121 0000012B 00000135   |....!...+...5...|
0x00000060: 0000013F 00000149 00000153 0000015D   |?...I...S...]...|
0x00000070: 00000167 00000171 0000017B 00000185   |g...q...{.......|
0x00000080: 0000018F 00000199 000001A3 000001AD   |................|
0x00000090: 000001B7 000001C1 000001CB 000001D5   |................|
0x000000A0: 000001DF 000001E9 000001F3 000001FD   |................|
0x000000B0: 00000207 00000211 0000021B 00000225   |............%...|
0x000000C0: 46C0B51F F00046C0 B004FAEF BD1FB40F   |...F.F..........|
0x000000D0: 495A2008 58096809 20384708 68094957   |. ZI.h.X.G8 WI.h|
0x000000E0: 47085809 4955203C 58096809 20404708   |.X.G< UI.h.X.G@ |
0x000000F0: 68094952 47085809 49502044 58096809   |RI.h.X.GD PI.h.X|
0x00000100: 20484708 6809494D 47085809 494B204C   |.GH MI.h.X.GL KI|
0x00000110: 58096809 20504708 68094948 47085809   |.h.X.GP HI.h.X.G|
0x00000120: 49462054 58096809 20584708 68094943   |T FI.h.X.GX CI.h|
0x00000130: 47085809 4941205C 58096809 20604708   |.X.G\ AI.h.X.G` |
0x00000140: 6809493E 47085809 493C2064 58096809   |>I.h.X.Gd <I.h.X|
0x00000150: 20684708 68094939 47085809 4937206C   |.Gh 9I.h.X.Gl 7I|
0x00000160: 58096809 20704708 68094934 47085809   |.h.X.Gp 4I.h.X.G|
0x00000170: 49322074 58096809 20784708 6809492F   |t 2I.h.X.Gx /I.h|
0x00000180: 47085809 492D207C 58096809 20804708   |.X.G| -I.h.X.G. |
0x00000190: 6809492A 47085809 49282084 58096809   |*I.h.X.G. (I.h.X|
0x000001A0: 20884708 68094925 47085809 4923208C   |.G. %I.h.X.G. #I|
0x000001B0: 58096809 20904708 68094920 47085809   |.h.X.G.  I.h.X.G|
0x000001C0: 491E2094 58096809 20984708 6809491B   |. .I.h.X.G. .I.h|
0x000001D0: 47085809 4919209C 58096809 20A04708   |.X.G. .I.h.X.G. |
0x000001E0: 68094916 47085809 491420A4 58096809   |.I.h.X.G. .I.h.X|
0x000001F0: 20A84708 68094911 47085809 490F20AC   |.G. .I.h.X.G. .I|
0x00000200: 58096809 20B04708 6809490C 47085809   |.h.X.G. .I.h.X.G|
0x00000210: 490A20B4 58096809 20B84708 68094907   |. .I.h.X.G. .I.h|
0x00000220: 47085809 490520BC 58096809 00004708   |.X.G. .I.h.X.G..|
0x00000230: 49044803 4B034A02 00004770 20000000   |.H.I.J.KpG..... |
0x00000240: 000007C0 000007C0 4BD82201 BF00605A   |.........".KZ`..|
0x00000250: 68124AD7 D0FB2A00 BF006001 68124AD4   |.J.h.*...`...J.h|
0x00000260: D0FB2A00 4BD12200 BF00605A 68124AD0   |.*...".KZ`...J.h|
0x00000270: D0FB2A00 B5F04770 460E4605 24004617   |.*..pG...F.F.F.$|
0x00000280: 00A2E006 00A258B1 F7FF1950 1C64FFDD   |.....X..P.....d.|
0x00000290: D3F642BC BDF02000 43C02001 600849C5   |.B... ... .C.I.`|
0x000002A0: 60481040 46014770 04922201 42906808   |@.H`pG.F."...h.B|
0x000002B0: 2010D901 20004770 B5F0E7FC 460C4605   |... pG. .....F.F|
0x000002C0: 27004616 4628E006 F7FF6821 1D2DFFBD   |.F.'..(F!h....-.|
0x000002D0: 1C7F1D24 D3F642B7 B570BDF0 460C4605   |$....B....p..F.F|
0x000002E0: E00B462E F0004630 2CFFF975 2400D801   |.F..0F..u..,...$|
0x000002F0: 3CFFE001 20013C01 18360280 D1F12C00   |...<.<. ..6..,..|
0x00000300: 4601BD70 04922201 42906848 2009D901   |p..F."..Hh.B... |
0x00000310: 48A94770 1C406940 200FD101 2000E7F8   |pG.H@i@.... ... |
0x00000320: B5FEE7F6 68204604 F0000003 0405FA37   |.....F h....7...|
0x00000330: 5949422B 1D20008B FFE3F7FF 2D004605   |+BIY.. ......F.-|
0x00000340: 4628D001 F7FFBDFE 2001FFA7 F00002C0   |..(F....... ....|
0x00000350: 2204F941 48994621 FF8DF7FF D0012800   |A.."!F.H.....(..|
0x00000360: E7EF2003 46212208 F0004894 2800F96D   |. ..."!F.H..m..(|
0x00000370: 2100D106 68004892 FF66F7FF F90CF000   |...!.H.h..f.....|
0x00000380: E7DF2003 68E668A7 90016860 46384631   |. ...h.h`h..1F8F|
0x00000390: FFA3F7FF 46384632 F7FF9901 00B2FF8E   |....2F8F........|
0x000003A0: 99014638 F950F000 D1002800 2003E7CA   |8F....P..(..... |
0x000003B0: F000E7C8 4883F9E3 49836800 E0416008   |.......H.h.I.`A.|
0x000003C0: 90016860 68A068E6 00B29000 98019900   |`h...h.h........|
0x000003D0: F93AF000 2F004607 E7B3D100 E7B1200E   |..:..F./..... ..|
0x000003E0: F7FF1D20 4605FF60 D0012D00 E7A94628   | ...`..F.-..(F..|
0x000003F0: 28006860 F7FFD107 2003FF4F F0000280   |`h.(....O.. ....|
